[gd_scene load_steps=2 format=2]

[sub_resource type="GDScript" id=1]
script/source = "extends Node

var diagram = \"\"\"
|                                      C`                                  
|                                                                             
|              C (3,4)                                                               
|               |                                                             
|                |                          D`                                   
|                |                                                             
|                 |          B(5,2)                                                  
|                 D                                                             
|       A(1,1)                                                                      
|                                                                             
----------------------------------------------------------
\"\"\"

# Called when the node enters the scene tree for the first time.
func _ready():
	var a = Vector2(1,1)
	var b = Vector2(10,2)
#	var c = Vector2(25,25)
	var c = Vector2(0,0)
#	var c = Vector2(3,4)

	
	var AB = b-a;
	var AC = c-a;
	var ABn = AB.normalized()
	var ABl = AB.length()
	var mathd = clamp(AC.dot(ABn)/ABl,0,1) * AB + a
		
	var test = AC.project(AB) + a
	
	pass
	
# Called every frame. 'delta' is the elapsed time since the previous frame.
#func _process(delta):
#	pass
"

[node name="Node" type="Node"]
script = SubResource( 1 )
